{
  "artists" : {
    "href" : "https://api.spotify.com/v1/search?query=future&type=artist&offset=0&limit=20",
    "items" : [ {
      "external_urls" : {
        "spotify" : "https://open.spotify.com/artist/1RyvyyTE3xzB2ZywiAwp0i"
      },
      "followers" : {
        "href" : null,
        "total" : 2597697
      },
      "genres" : [ "dwn trap", "rap", "southern hip hop", "trap music" ],
      "href" : "https://api.spotify.com/v1/artists/1RyvyyTE3xzB2ZywiAwp0i",
      "id" : "1RyvyyTE3xzB2ZywiAwp0i",
      "images" : [ {
        "height" : 640,
        "url" : "https://i.scdn.co/image/73fe3d7939e5bf6f37bebc523b8d5b9df2989e6f",
        "width" : 640
      }, {
        "height" : 320,
        "url" : "https://i.scdn.co/image/b9116e3539344bfe22c360facb6b42741c5ab9dc",
        "width" : 320
      }, {
        "height" : 160,
        "url" : "https://i.scdn.co/image/6aab6547fff2b64e9a36d99544d6e6c2e921acf8",
        "width" : 160
      } ],
      "name" : "Future",
      "popularity" : 94,
      "type" : "artist",
      "uri" : "spotify:artist:1RyvyyTE3xzB2ZywiAwp0i"
    }, {
      "external_urls" : {
        "spotify" : "https://open.spotify.com/artist/6TiNbcfVoO3SppeLYJbnSr"
      },
      "followers" : {
        "href" : null,
        "total" : 12519
      },
      "genres" : [ ],
      "href" : "https://api.spotify.com/v1/artists/6TiNbcfVoO3SppeLYJbnSr",
      "id" : "6TiNbcfVoO3SppeLYJbnSr",
      "images" : [ {
        "height" : 640,
        "url" : "https://i.scdn.co/image/8d9649c8a9f51a513e8342b9bb529264adac85ce",
        "width" : 640
      }, {
        "height" : 300,
        "url" : "https://i.scdn.co/image/9886cff991a1cfe3aefee1ab9a7810364dbda267",
        "width" : 300
      }, {
        "height" : 64,
        "url" : "https://i.scdn.co/image/be17ccecd01daef996e474c4eb394745b0992bd3",
        "width" : 64
      } ],
      "name" : "Future",
      "popularity" : 72,
      "type" : "artist",
      "uri" : "spotify:artist:6TiNbcfVoO3SppeLYJbnSr"
    }, {
      "external_urls" : {
        "spotify" : "https://open.spotify.com/artist/7FAnawAJI7lHt4s1Ohde8w"
      },
      "followers" : {
        "href" : null,
        "total" : 226
      },
      "genres" : [ ],
      "href" : "https://api.spotify.com/v1/artists/7FAnawAJI7lHt4s1Ohde8w",
      "id" : "7FAnawAJI7lHt4s1Ohde8w",
      "images" : [ {
        "height" : 640,
        "url" : "https://i.scdn.co/image/f53170324eee8b75fc07461819dd6cd4257ce20d",
        "width" : 640
      }, {
        "height" : 300,
        "url" : "https://i.scdn.co/image/785fb3ff855c68b4f3f04701513048dd46487009",
        "width" : 300
      }, {
        "height" : 64,
        "url" : "https://i.scdn.co/image/8a777882dead2237443dcc919c0a3d6f91957c82",
        "width" : 64
      } ],
      "name" : "Future",
      "popularity" : 67,
      "type" : "artist",
      "uri" : "spotify:artist:7FAnawAJI7lHt4s1Ohde8w"
    }, {
      "external_urls" : {
        "spotify" : "https://open.spotify.com/artist/1WvvwcQx0tj6NdDhZZ2zZz"
      },
      "followers" : {
        "href" : null,
        "total" : 217507
      },
      "genres" : [ "alternative dance", "chamber pop", "chillwave", "folk-pop", "freak folk", "indie folk", "indie pop", "indie r&b", "indie rock", "indietronica", "neo-psychedelic", "new rave", "noise pop", "shimmer pop", "synthpop" ],
      "href" : "https://api.spotify.com/v1/artists/1WvvwcQx0tj6NdDhZZ2zZz",
      "id" : "1WvvwcQx0tj6NdDhZZ2zZz",
      "images" : [ {
        "height" : 640,
        "url" : "https://i.scdn.co/image/04a78b38a811b79569b591ef4c24527eb652f340",
        "width" : 640
      }, {
        "height" : 320,
        "url" : "https://i.scdn.co/image/02263408b36f0471ab5e63933d07c06edf688b29",
        "width" : 320
      }, {
        "height" : 160,
        "url" : "https://i.scdn.co/image/3791a87c63ea3e84c34a0bbf34ea80c9cec3edb0",
        "width" : 160
      } ],
      "name" : "Future Islands",
      "popularity" : 68,
      "type" : "artist",
      "uri" : "spotify:artist:1WvvwcQx0tj6NdDhZZ2zZz"
    }, {
      "external_urls" : {
        "spotify" : "https://open.spotify.com/artist/5xpkLC1MxiPRiIJUDEzuVm"
      },
      "followers" : {
        "href" : null,
        "total" : 293957
      },
      "genres" : [ "hip hop", "pop rap", "rap", "underground hip hop" ],
      "href" : "https://api.spotify.com/v1/artists/5xpkLC1MxiPRiIJUDEzuVm",
      "id" : "5xpkLC1MxiPRiIJUDEzuVm",
      "images" : [ {
        "height" : 1506,
        "url" : "https://i.scdn.co/image/382e1123192a9b2c8da4ca16a950a6773c0b0bc7",
        "width" : 1000
      }, {
        "height" : 964,
        "url" : "https://i.scdn.co/image/8a477cdcb8e4d665d307c3f6fbff1ceb10a40f55",
        "width" : 640
      }, {
        "height" : 301,
        "url" : "https://i.scdn.co/image/68d20898440c2821311cdff8539118546bcc825a",
        "width" : 200
      }, {
        "height" : 96,
        "url" : "https://i.scdn.co/image/219e76b907865f71f5e0512cf0792cbf12eb272e",
        "width" : 64
      } ],
      "name" : "Odd Future",
      "popularity" : 54,
      "type" : "artist",
      "uri" : "spotify:artist:5xpkLC1MxiPRiIJUDEzuVm"
    }, {
      "external_urls" : {
        "spotify" : "https://open.spotify.com/artist/470WlqN9HSRDGNaMufeHHF"
      },
      "followers" : {
        "href" : null,
        "total" : 14233
      },
      "genres" : [ "acoustic pop", "chamber pop", "folk-pop", "indie anthem-folk", "indie folk", "indiecoustica", "neo mellow", "viral pop" ],
      "href" : "https://api.spotify.com/v1/artists/470WlqN9HSRDGNaMufeHHF",
      "id" : "470WlqN9HSRDGNaMufeHHF",
      "images" : [ {
        "height" : 640,
        "url" : "https://i.scdn.co/image/0b71f6e046f11b9267a0ed7181620d9037485c30",
        "width" : 640
      }, {
        "height" : 320,
        "url" : "https://i.scdn.co/image/f877e4e03ff9d98b20514ad2ecc55ed18eb42161",
        "width" : 320
      }, {
        "height" : 160,
        "url" : "https://i.scdn.co/image/46fb3f1362c20c756b3c09cdbaf91e227f01e7d3",
        "width" : 160
      } ],
      "name" : "Imaginary Future",
      "popularity" : 55,
      "type" : "artist",
      "uri" : "spotify:artist:470WlqN9HSRDGNaMufeHHF"
    }, {
      "external_urls" : {
        "spotify" : "https://open.spotify.com/artist/3wKj5PmSpnrtz9n9hG2QCA"
      },
      "followers" : {
        "href" : null,
        "total" : 5288
      },
      "genres" : [ "indie pop", "indie poptimism", "indie psych-rock", "indietronica", "shimmer pop" ],
      "href" : "https://api.spotify.com/v1/artists/3wKj5PmSpnrtz9n9hG2QCA",
      "id" : "3wKj5PmSpnrtz9n9hG2QCA",
      "images" : [ {
        "height" : 640,
        "url" : "https://i.scdn.co/image/4e5b886457281da6a89a15c2010b36be7046fc2e",
        "width" : 640
      }, {
        "height" : 320,
        "url" : "https://i.scdn.co/image/ab06e3fdd975f725ef61ff53d625477dbc5fb67c",
        "width" : 320
      }, {
        "height" : 160,
        "url" : "https://i.scdn.co/image/7ac33177ec4c132bcf5386248e4f998efd128ad0",
        "width" : 160
      } ],
      "name" : "Future Generations",
      "popularity" : 47,
      "type" : "artist",
      "uri" : "spotify:artist:3wKj5PmSpnrtz9n9hG2QCA"
    }, {
      "external_urls" : {
        "spotify" : "https://open.spotify.com/artist/2PAjAnpGH93C6vXOa8ZKzD"
      },
      "followers" : {
        "href" : null,
        "total" : 24622
      },
      "genres" : [ "acoustic pop", "anthem worship", "ccm", "christian alternative rock", "christian christmas", "christian rock", "christian uplift", "dreamo", "indiecoustica", "worship" ],
      "href" : "https://api.spotify.com/v1/artists/2PAjAnpGH93C6vXOa8ZKzD",
      "id" : "2PAjAnpGH93C6vXOa8ZKzD",
      "images" : [ {
        "height" : 667,
        "url" : "https://i.scdn.co/image/5401346a808d3d9ae1f29109baeaf6e516371d62",
        "width" : 1000
      }, {
        "height" : 427,
        "url" : "https://i.scdn.co/image/cf6e792c5f82f6f2bd8d1f155c58368c16c196e8",
        "width" : 640
      }, {
        "height" : 133,
        "url" : "https://i.scdn.co/image/21dd944a2c45c03e604ff988ed219b1ab7bb6d9b",
        "width" : 200
      }, {
        "height" : 43,
        "url" : "https://i.scdn.co/image/f9061c35e0d3f0047b627f73e9dccef8b7413c4a",
        "width" : 64
      } ],
      "name" : "Future Of Forestry",
      "popularity" : 40,
      "type" : "artist",
      "uri" : "spotify:artist:2PAjAnpGH93C6vXOa8ZKzD"
    }, {
      "external_urls" : {
        "spotify" : "https://open.spotify.com/artist/6gmhrHojnyp0SfG4WwJgIE"
      },
      "followers" : {
        "href" : null,
        "total" : 24371
      },
      "genres" : [ "epicore", "scorecore", "soundtrack", "video game music" ],
      "href" : "https://api.spotify.com/v1/artists/6gmhrHojnyp0SfG4WwJgIE",
      "id" : "6gmhrHojnyp0SfG4WwJgIE",
      "images" : [ {
        "height" : 640,
        "url" : "https://i.scdn.co/image/cb920329e27ff746c777ccc50e9000ca5a93ad11",
        "width" : 640
      }, {
        "height" : 300,
        "url" : "https://i.scdn.co/image/f098963d89e5b98507499aa6a60adfbb57b7e705",
        "width" : 300
      }, {
        "height" : 64,
        "url" : "https://i.scdn.co/image/5e206c50c56501a57ec6d68aaea8b0d63e466a9e",
        "width" : 64
      } ],
      "name" : "Future World Music",
      "popularity" : 45,
      "type" : "artist",
      "uri" : "spotify:artist:6gmhrHojnyp0SfG4WwJgIE"
    }, {
      "external_urls" : {
        "spotify" : "https://open.spotify.com/artist/5EeatowmM27FYdq10duh7p"
      },
      "followers" : {
        "href" : null,
        "total" : 2439
      },
      "genres" : [ ],
      "href" : "https://api.spotify.com/v1/artists/5EeatowmM27FYdq10duh7p",
      "id" : "5EeatowmM27FYdq10duh7p",
      "images" : [ {
        "height" : 640,
        "url" : "https://i.scdn.co/image/10976ae3148ba625e1712aba8bc85396e9773ddf",
        "width" : 640
      }, {
        "height" : 320,
        "url" : "https://i.scdn.co/image/37402e42d8a15d8236c6566cd4ee29b7e93e25b0",
        "width" : 320
      }, {
        "height" : 160,
        "url" : "https://i.scdn.co/image/c9c01a4d7ea02916e803610a9ecf129936aecec7",
        "width" : 160
      } ],
      "name" : "Future Thieves",
      "popularity" : 33,
      "type" : "artist",
      "uri" : "spotify:artist:5EeatowmM27FYdq10duh7p"
    }, {
      "external_urls" : {
        "spotify" : "https://open.spotify.com/artist/62eXubdnqpsK7IFweKENa6"
      },
      "followers" : {
        "href" : null,
        "total" : 1043
      },
      "genres" : [ ],
      "href" : "https://api.spotify.com/v1/artists/62eXubdnqpsK7IFweKENa6",
      "id" : "62eXubdnqpsK7IFweKENa6",
      "images" : [ {
        "height" : 640,
        "url" : "https://i.scdn.co/image/26da0f6d0c954624d6f344e648e6ee0d2d3364e6",
        "width" : 640
      }, {
        "height" : 300,
        "url" : "https://i.scdn.co/image/6d6a0a3766e25739077e91d787bfd653cf08fbe7",
        "width" : 300
      }, {
        "height" : 64,
        "url" : "https://i.scdn.co/image/5a96c61a6e4174ecbcf82672e60579520ac1a1a0",
        "width" : 64
      } ],
      "name" : "London Future",
      "popularity" : 34,
      "type" : "artist",
      "uri" : "spotify:artist:62eXubdnqpsK7IFweKENa6"
    }, {
      "external_urls" : {
        "spotify" : "https://open.spotify.com/artist/0tyarPEQ7vB99LvBbDrd2r"
      },
      "followers" : {
        "href" : null,
        "total" : 3230
      },
      "genres" : [ ],
      "href" : "https://api.spotify.com/v1/artists/0tyarPEQ7vB99LvBbDrd2r",
      "id" : "0tyarPEQ7vB99LvBbDrd2r",
      "images" : [ {
        "height" : 640,
        "url" : "https://i.scdn.co/image/dbe903bf45e051723ad237398101288ef7c6f563",
        "width" : 629
      }, {
        "height" : 300,
        "url" : "https://i.scdn.co/image/cf7196c03d85b8eec4e17ae2ef11100020eddc68",
        "width" : 295
      }, {
        "height" : 64,
        "url" : "https://i.scdn.co/image/79290b306565fd40bb612e2b30d8927678b066f6",
        "width" : 63
      } ],
      "name" : "Chronic Future",
      "popularity" : 29,
      "type" : "artist",
      "uri" : "spotify:artist:0tyarPEQ7vB99LvBbDrd2r"
    }, {
      "external_urls" : {
        "spotify" : "https://open.spotify.com/artist/45ONJC5hPh0WF60N3n3U3n"
      },
      "followers" : {
        "href" : null,
        "total" : 315
      },
      "genres" : [ "deep underground hip hop" ],
      "href" : "https://api.spotify.com/v1/artists/45ONJC5hPh0WF60N3n3U3n",
      "id" : "45ONJC5hPh0WF60N3n3U3n",
      "images" : [ {
        "height" : 640,
        "url" : "https://i.scdn.co/image/8ee759479054b2553e7909cd9aa4f7c9a014dfc7",
        "width" : 640
      }, {
        "height" : 300,
        "url" : "https://i.scdn.co/image/b874c5677e6f2d5780f81613c2b47294c7e67ac8",
        "width" : 300
      }, {
        "height" : 64,
        "url" : "https://i.scdn.co/image/e5219d31b38a7bec138f79286c0d53c23882d677",
        "width" : 64
      } ],
      "name" : "C tha Future",
      "popularity" : 33,
      "type" : "artist",
      "uri" : "spotify:artist:45ONJC5hPh0WF60N3n3U3n"
    }, {
      "external_urls" : {
        "spotify" : "https://open.spotify.com/artist/5A2AsabIONr5sHcWDqS6c7"
      },
      "followers" : {
        "href" : null,
        "total" : 2109
      },
      "genres" : [ ],
      "href" : "https://api.spotify.com/v1/artists/5A2AsabIONr5sHcWDqS6c7",
      "id" : "5A2AsabIONr5sHcWDqS6c7",
      "images" : [ {
        "height" : 640,
        "url" : "https://i.scdn.co/image/539983d090897dadcb605393d4fc83b9ba67672a",
        "width" : 640
      }, {
        "height" : 320,
        "url" : "https://i.scdn.co/image/6cf6ab01cc7a3a0eed8c28661620e21a5301c9f0",
        "width" : 320
      }, {
        "height" : 160,
        "url" : "https://i.scdn.co/image/2ad6f5c41a382630f78a088ff2446d8e70af34aa",
        "width" : 160
      } ],
      "name" : "Future Sunsets",
      "popularity" : 37,
      "type" : "artist",
      "uri" : "spotify:artist:5A2AsabIONr5sHcWDqS6c7"
    }, {
      "external_urls" : {
        "spotify" : "https://open.spotify.com/artist/6RxDDCslC38gATlTuVBmMW"
      },
      "followers" : {
        "href" : null,
        "total" : 8891
      },
      "genres" : [ "deep german hip hop", "underground hip hop" ],
      "href" : "https://api.spotify.com/v1/artists/6RxDDCslC38gATlTuVBmMW",
      "id" : "6RxDDCslC38gATlTuVBmMW",
      "images" : [ {
        "height" : 640,
        "url" : "https://i.scdn.co/image/79c543ae7a0e4f3aee9f0cf3d43eb1be64ab7f83",
        "width" : 640
      }, {
        "height" : 320,
        "url" : "https://i.scdn.co/image/0656b22aca4b001febd8bc17ebfc263512cba02b",
        "width" : 320
      }, {
        "height" : 160,
        "url" : "https://i.scdn.co/image/f8f42acc6d9b11aea2c0551b41b5161cc3fe93bc",
        "width" : 160
      } ],
      "name" : "NOK from the Future",
      "popularity" : 42,
      "type" : "artist",
      "uri" : "spotify:artist:6RxDDCslC38gATlTuVBmMW"
    }, {
      "external_urls" : {
        "spotify" : "https://open.spotify.com/artist/7oaD5pgWwQwvx4S8wmSkHD"
      },
      "followers" : {
        "href" : null,
        "total" : 4866
      },
      "genres" : [ ],
      "href" : "https://api.spotify.com/v1/artists/7oaD5pgWwQwvx4S8wmSkHD",
      "id" : "7oaD5pgWwQwvx4S8wmSkHD",
      "images" : [ {
        "height" : 640,
        "url" : "https://i.scdn.co/image/65c7c0d1da72c1eb98739ba2509e012dd56b70b0",
        "width" : 640
      }, {
        "height" : 300,
        "url" : "https://i.scdn.co/image/d43fa19155c95c127d8d2c7a2fbeef0e28d9be6b",
        "width" : 300
      }, {
        "height" : 64,
        "url" : "https://i.scdn.co/image/53fe6623fe9aaeb01c7c53d7313c820e31b21095",
        "width" : 64
      } ],
      "name" : "Future Idiots",
      "popularity" : 35,
      "type" : "artist",
      "uri" : "spotify:artist:7oaD5pgWwQwvx4S8wmSkHD"
    }, {
      "external_urls" : {
        "spotify" : "https://open.spotify.com/artist/25xjytYjVKPvHiDIgrFodf"
      },
      "followers" : {
        "href" : null,
        "total" : 2549
      },
      "genres" : [ "alternative metal", "grunge pop", "nu metal", "post-grunge" ],
      "href" : "https://api.spotify.com/v1/artists/25xjytYjVKPvHiDIgrFodf",
      "id" : "25xjytYjVKPvHiDIgrFodf",
      "images" : [ {
        "height" : 354,
        "url" : "https://i.scdn.co/image/83f4bf34e89226289e3d5bececdd6da197391f6d",
        "width" : 654
      }, {
        "height" : 346,
        "url" : "https://i.scdn.co/image/6a55e377344e699e60b23c19b0462f362b4b81f4",
        "width" : 639
      }, {
        "height" : 108,
        "url" : "https://i.scdn.co/image/31f7de880cb24f442bf576e8f97280c45e07845b",
        "width" : 200
      }, {
        "height" : 35,
        "url" : "https://i.scdn.co/image/6d20e3a6f534cbf1a5e8978dc24829db2c442f00",
        "width" : 64
      } ],
      "name" : "Future Leaders of the World",
      "popularity" : 32,
      "type" : "artist",
      "uri" : "spotify:artist:25xjytYjVKPvHiDIgrFodf"
    }, {
      "external_urls" : {
        "spotify" : "https://open.spotify.com/artist/2qhmNI4ZHPpeDutdg473Z3"
      },
      "followers" : {
        "href" : null,
        "total" : 27192
      },
      "genres" : [ "abstract", "acid house", "ambient", "big beat", "breakbeat", "detroit techno", "drill and bass", "drum and bass", "electronic", "glitch", "hardcore techno", "intelligent dance music", "ninja", "techno", "trip hop" ],
      "href" : "https://api.spotify.com/v1/artists/2qhmNI4ZHPpeDutdg473Z3",
      "id" : "2qhmNI4ZHPpeDutdg473Z3",
      "images" : [ {
        "height" : 665,
        "url" : "https://i.scdn.co/image/528affaa7b4b027edfc283c5cd67b219347171e4",
        "width" : 1000
      }, {
        "height" : 425,
        "url" : "https://i.scdn.co/image/56d3fb005d131cb2f8e3675a594942d80b861141",
        "width" : 639
      }, {
        "height" : 133,
        "url" : "https://i.scdn.co/image/911bcb89ad17ca58e92c5c37d5afd49e612158b7",
        "width" : 200
      }, {
        "height" : 43,
        "url" : "https://i.scdn.co/image/bfd9fc035a1a6ae5d9040a2eefa897fd721111bb",
        "width" : 64
      } ],
      "name" : "The Future Sound Of London",
      "popularity" : 39,
      "type" : "artist",
      "uri" : "spotify:artist:2qhmNI4ZHPpeDutdg473Z3"
    }, {
      "external_urls" : {
        "spotify" : "https://open.spotify.com/artist/1cicSByDDVPBhxo98KLQVN"
      },
      "followers" : {
        "href" : null,
        "total" : 1027
      },
      "genres" : [ ],
      "href" : "https://api.spotify.com/v1/artists/1cicSByDDVPBhxo98KLQVN",
      "id" : "1cicSByDDVPBhxo98KLQVN",
      "images" : [ {
        "height" : 640,
        "url" : "https://i.scdn.co/image/02f8a8c3a122f7549651add4a51549181f979133",
        "width" : 640
      }, {
        "height" : 300,
        "url" : "https://i.scdn.co/image/21dcde1dadc337adbe66aee1b88e6f3d87048d23",
        "width" : 300
      }, {
        "height" : 64,
        "url" : "https://i.scdn.co/image/cb578e35a019076edbb8d222d0214e1c1bec31e7",
        "width" : 64
      } ],
      "name" : "Future Unlimited",
      "popularity" : 30,
      "type" : "artist",
      "uri" : "spotify:artist:1cicSByDDVPBhxo98KLQVN"
    }, {
      "external_urls" : {
        "spotify" : "https://open.spotify.com/artist/4CAu7nsGx5wilEjWIHVoax"
      },
      "followers" : {
        "href" : null,
        "total" : 798
      },
      "genres" : [ "epicore" ],
      "href" : "https://api.spotify.com/v1/artists/4CAu7nsGx5wilEjWIHVoax",
      "id" : "4CAu7nsGx5wilEjWIHVoax",
      "images" : [ {
        "height" : 640,
        "url" : "https://i.scdn.co/image/8c91afd7571d609951bf8a0e7a2a92a4526d5e10",
        "width" : 640
      }, {
        "height" : 300,
        "url" : "https://i.scdn.co/image/5459208c08a4be6ad2071ab889bd0ce5ea0f111e",
        "width" : 300
      }, {
        "height" : 64,
        "url" : "https://i.scdn.co/image/39a90543025dc7d2d0d46cec105bff35d25ae283",
        "width" : 64
      } ],
      "name" : "Future Heroes",
      "popularity" : 29,
      "type" : "artist",
      "uri" : "spotify:artist:4CAu7nsGx5wilEjWIHVoax"
    } ],
    "limit" : 20,
    "next" : "https://api.spotify.com/v1/search?query=future&type=artist&offset=20&limit=20",
    "offset" : 0,
    "previous" : null,
    "total" : 949
  }
}